"zombieid";"age";"gender";"rurality";"household";"water";"food";"radio";"flashlight";"firstaid";"zombie"
1;18;"female";"rural";1;0;"yes";"yes";"no";"yes";"not zombie"
2;18;"male";"rural";3;3;"yes";"yes";"yes";"yes";"not zombie"
3;18;"male";"rural";4;2;"yes";"yes";"no";"yes";"not zombie"
4;19;"male";"rural";1;0;"yes";"yes";"yes";"no";"not zombie"
5;19;"male";"urban";1;0;"yes";"yes";"no";"yes";"not zombie"
6;19;"female";"urban";1;5;"yes";"yes";"yes";"yes";"not zombie"
7;20;"female";"suburban";2;6;"no";"yes";"no";"yes";"not zombie"
8;20;"female";"rural";2;0;"yes";"no";"no";"no";"not zombie"
9;21;"female";"urban";1;1;"no";"no";"yes";"yes";"not zombie"
10;21;"female";"rural";2;1;"no";"no";"yes";"yes";"not zombie"
11;21;"male";"rural";1;1;"yes";"no";"no";"yes";"not zombie"
12;21;"male";"rural";2;2;"no";"yes";"no";"no";"not zombie"
13;22;"male";"suburban";2;2;"yes";"yes";"no";"yes";"not zombie"
14;23;"male";"rural";3;1;"yes";"yes";"yes";"yes";"not zombie"
15;23;"male";"rural";2;1;"yes";"yes";"yes";"yes";"not zombie"
16;23;"male";"suburban";1;1;"yes";"yes";"yes";"no";"not zombie"
17;24;"male";"rural";4;5;"yes";"yes";"no";"yes";"not zombie"
18;24;"female";"rural";3;0;"yes";"yes";"yes";"yes";"not zombie"
19;24;"female";"suburban";2;0;"no";"yes";"no";"no";"not zombie"
20;24;"male";"urban";1;6;"yes";"no";"yes";"yes";"not zombie"
21;24;"male";"rural";2;1;"no";"no";"no";"yes";"not zombie"
22;25;"male";"suburban";2;1;"no";"no";"no";"yes";"not zombie"
23;25;"male";"rural";1;0;"no";"no";"yes";"no";"not zombie"
24;25;"female";"urban";1;0;"yes";"no";"yes";"yes";"not zombie"
25;25;"female";"rural";2;1;"no";"yes";"no";"yes";"not zombie"
26;25;"male";"rural";3;5;"no";"no";"no";"yes";"not zombie"
27;26;"female";"rural";3;5;"yes";"yes";"yes";"no";"not zombie"
28;26;"female";"rural";2;1;"no";"yes";"yes";"no";"not zombie"
29;26;"female";"suburban";3;2;"yes";"no";"no";"yes";"not zombie"
30;26;"female";"suburban";3;5;"yes";"yes";"no";"yes";"not zombie"
31;27;"male";"rural";2;1;"yes";"yes";"no";"no";"not zombie"
32;27;"male";"rural";4;5;"yes";"no";"yes";"no";"not zombie"
33;28;"male";"rural";2;1;"yes";"yes";"yes";"yes";"not zombie"
34;28;"male";"suburban";3;1;"yes";"yes";"yes";"yes";"not zombie"
35;28;"female";"urban";1;6;"yes";"no";"no";"no";"not zombie"
36;28;"female";"rural";1;6;"yes";"yes";"yes";"no";"not zombie"
37;29;"male";"rural";5;5;"no";"yes";"no";"yes";"not zombie"
38;29;"male";"rural";4;2;"yes";"no";"yes";"yes";"not zombie"
39;29;"female";"rural";5;5;"yes";"yes";"no";"no";"not zombie"
40;29;"female";"rural";3;1;"no";"yes";"yes";"no";"not zombie"
41;29;"female";"rural";4;1;"yes";"yes";"no";"yes";"not zombie"
42;30;"male";"suburban";3;0;"yes";"no";"no";"yes";"not zombie"
43;30;"male";"rural";4;2;"yes";"no";"yes";"no";"not zombie"
44;30;"female";"urban";4;0;"no";"yes";"yes";"no";"not zombie"
45;30;"female";"urban";3;1;"yes";"yes";"no";"yes";"not zombie"
46;31;"female";"suburban";5;5;"yes";"yes";"no";"yes";"not zombie"
47;32;"female";"urban";3;2;"yes";"no";"no";"no";"not zombie"
48;32;"male";"rural";3;5;"yes";"no";"yes";"no";"not zombie"
49;32;"male";"rural";5;5;"yes";"yes";"yes";"yes";"not zombie"
50;32;"female";"rural";5;5;"yes";"yes";"yes";"yes";"not zombie"
51;32;"female";"rural";4;1;"no";"no";"no";"no";"not zombie"
52;33;"male";"rural";4;0;"no";"no";"yes";"no";"not zombie"
53;33;"male";"suburban";4;5;"yes";"yes";"no";"yes";"not zombie"
54;33;"female";"urban";4;0;"yes";"yes";"yes";"yes";"not zombie"
55;34;"female";"rural";5;0;"yes";"yes";"no";"no";"not zombie"
56;34;"female";"rural";4;3;"yes";"no";"no";"no";"not zombie"
57;35;"male";"rural";5;1;"yes";"yes";"yes";"yes";"not zombie"
58;35;"male";"rural";5;0;"yes";"yes";"yes";"yes";"not zombie"
59;36;"female";"suburban";4;1;"no";"no";"no";"no";"not zombie"
60;36;"male";"rural";3;3;"yes";"yes";"no";"no";"not zombie"
61;36;"male";"urban";2;0;"yes";"no";"yes";"yes";"not zombie"
62;36;"female";"rural";2;1;"yes";"yes";"yes";"yes";"not zombie"
63;36;"female";"rural";3;3;"yes";"yes";"no";"no";"not zombie"
64;37;"male";"rural";5;5;"no";"yes";"no";"no";"not zombie"
65;37;"female";"rural";4;5;"yes";"yes";"no";"yes";"not zombie"
66;37;"male";"rural";3;5;"yes";"no";"yes";"yes";"not zombie"
67;38;"male";"rural";5;1;"yes";"no";"yes";"no";"not zombie"
68;38;"female";"rural";4;5;"yes";"yes";"yes";"no";"not zombie"
69;39;"male";"urban";3;0;"yes";"yes";"no";"yes";"not zombie"
70;39;"female";"urban";3;0;"yes";"yes";"yes";"yes";"not zombie"
71;40;"male";"suburban";3;0;"yes";"yes";"no";"no";"not zombie"
72;40;"male";"suburban";3;0;"yes";"yes";"yes";"no";"not zombie"
73;40;"female";"rural";4;1;"no";"no";"no";"yes";"not zombie"
74;41;"female";"rural";5;4;"yes";"yes";"yes";"yes";"not zombie"
75;41;"female";"rural";4;0;"yes";"yes";"no";"no";"not zombie"
76;42;"male";"rural";4;1;"yes";"no";"no";"no";"not zombie"
77;42;"male";"urban";3;2;"no";"yes";"yes";"yes";"not zombie"
78;42;"female";"rural";5;5;"yes";"no";"yes";"yes";"not zombie"
79;42;"female";"rural";6;5;"yes";"no";"no";"no";"not zombie"
80;43;"female";"rural";4;2;"yes";"yes";"no";"no";"not zombie"
81;44;"male";"suburban";2;2;"yes";"yes";"no";"yes";"not zombie"
82;44;"female";"suburban";3;0;"yes";"no";"yes";"yes";"not zombie"
83;45;"female";"rural";4;0;"yes";"yes";"yes";"no";"not zombie"
84;45;"female";"rural";5;1;"yes";"yes";"yes";"no";"not zombie"
85;45;"male";"rural";3;2;"yes";"no";"no";"yes";"not zombie"
86;46;"female";"rural";5;5;"yes";"yes";"yes";"yes";"not zombie"
87;46;"male";"rural";4;5;"no";"yes";"no";"no";"not zombie"
88;47;"male";"suburban";3;2;"yes";"no";"yes";"no";"not zombie"
89;47;"male";"rural";3;3;"yes";"yes";"no";"yes";"not zombie"
90;48;"female";"suburban";2;0;"yes";"yes";"no";"yes";"not zombie"
91;48;"female";"suburban";3;0;"no";"no";"yes";"no";"not zombie"
92;50;"female";"rural";2;1;"no";"yes";"yes";"no";"not zombie"
93;53;"female";"rural";3;2;"no";"yes";"no";"yes";"not zombie"
94;53;"female";"rural";1;2;"yes";"no";"no";"yes";"not zombie"
95;53;"female";"rural";1;1;"yes";"yes";"yes";"no";"not zombie"
96;54;"male";"rural";2;1;"yes";"yes";"yes";"no";"not zombie"
97;56;"male";"suburban";2;1;"yes";"no";"no";"yes";"not zombie"
98;56;"female";"rural";3;2;"no";"no";"no";"yes";"not zombie"
99;56;"female";"suburban";2;2;"no";"yes";"no";"no";"not zombie"
100;56;"male";"rural";1;0;"yes";"yes";"yes";"no";"not zombie"
101;57;"male";"rural";1;0;"yes";"yes";"yes";"yes";"not zombie"
102;58;"female";"rural";2;0;"yes";"yes";"yes";"yes";"not zombie"
103;59;"male";"urban";2;3;"yes";"yes";"no";"no";"not zombie"
104;59;"male";"rural";2;2;"yes";"no";"yes";"no";"not zombie"
105;59;"female";"rural";2;4;"no";"no";"no";"yes";"not zombie"
106;60;"female";"rural";2;0;"no";"no";"yes";"yes";"not zombie"
107;61;"male";"suburban";3;0;"yes";"yes";"no";"no";"not zombie"
108;61;"female";"rural";3;2;"yes";"yes";"yes";"no";"not zombie"
109;62;"male";"suburban";1;0;"yes";"yes";"no";"yes";"not zombie"
110;63;"female";"rural";1;0;"yes";"yes";"no";"yes";"not zombie"
111;65;"female";"rural";2;2;"yes";"no";"yes";"no";"not zombie"
112;67;"male";"rural";2;2;"no";"no";"yes";"no";"not zombie"
113;68;"male";"rural";2;1;"no";"yes";"no";"yes";"not zombie"
114;69;"female";"rural";2;3;"yes";"yes";"no";"yes";"not zombie"
115;71;"female";"urban";2;3;"yes";"yes";"no";"no";"not zombie"
116;72;"male";"suburban";2;0;"yes";"yes";"yes";"no";"not zombie"
117;74;"male";"suburban";1;0;"yes";"yes";"yes";"yes";"not zombie"
118;75;"female";"rural";1;2;"yes";"no";"yes";"yes";"not zombie"
119;77;"female";"rural";1;1;"yes";"yes";"no";"no";"not zombie"
120;81;"male";"rural";1;1;"yes";"yes";"yes";"no";"not zombie"
121;86;"male";"rural";2;1;"yes";"no";"no";"yes";"not zombie"
122;20;"female";"urban";2;0;"yes";"no";"yes";"yes";"zombie"
123;23;"male";"suburban";3;0;"no";"no";"no";"no";"zombie"
124;25;"female";"rural";5;0;"no";"no";"no";"no";"zombie"
125;28;"female";"suburban";3;0;"no";"yes";"yes";"yes";"zombie"
126;31;"female";"rural";4;0;"no";"no";"yes";"yes";"zombie"
127;32;"male";"suburban";4;0;"no";"no";"no";"no";"zombie"
128;42;"male";"rural";4;1;"no";"no";"no";"no";"zombie"
129;43;"male";"urban";5;1;"no";"no";"yes";"yes";"zombie"
130;44;"male";"rural";5;1;"yes";"no";"yes";"yes";"zombie"
131;45;"male";"urban";4;0;"yes";"yes";"no";"no";"zombie"
132;47;"female";"urban";2;0;"no";"yes";"no";"no";"zombie"
133;48;"female";"suburban";3;0;"no";"no";"no";"yes";"zombie"
134;48;"female";"urban";2;0;"no";"no";"yes";"yes";"zombie"
135;49;"female";"suburban";3;0;"no";"no";"yes";"no";"zombie"
136;49;"female";"suburban";2;0;"yes";"yes";"yes";"no";"zombie"
137;50;"male";"rural";4;0;"no";"no";"no";"yes";"zombie"
138;50;"male";"rural";3;0;"no";"no";"yes";"yes";"zombie"
139;51;"female";"urban";3;1;"no";"no";"no";"no";"zombie"
140;51;"male";"rural";4;1;"yes";"yes";"yes";"no";"zombie"
141;53;"male";"suburban";2;0;"no";"no";"no";"yes";"zombie"
142;54;"female";"urban";2;0;"no";"no";"yes";"yes";"zombie"
143;57;"female";"suburban";2;2;"yes";"no";"no";"no";"zombie"
144;58;"female";"urban";2;0;"no";"no";"no";"no";"zombie"
145;59;"male";"rural";1;0;"yes";"yes";"yes";"yes";"zombie"
146;60;"male";"rural";2;2;"no";"no";"yes";"yes";"zombie"
147;61;"male";"rural";2;0;"no";"no";"no";"no";"zombie"
148;64;"female";"suburban";2;0;"yes";"yes";"no";"no";"zombie"
149;65;"male";"urban";2;2;"no";"yes";"no";"yes";"zombie"
150;66;"female";"urban";2;1;"no";"no";"yes";"yes";"zombie"
151;68;"male";"suburban";2;0;"yes";"no";"yes";"no";"zombie"
152;71;"male";"rural";2;0;"yes";"no";"yes";"no";"zombie"
153;73;"female";"urban";1;0;"yes";"yes";"no";"yes";"zombie"
154;75;"male";"suburban";2;2;"yes";"yes";"yes";"yes";"zombie"
155;78;"female";"suburban";2;1;"no";"no";"no";"no";"zombie"
156;80;"male";"rural";2;1;"no";"no";"yes";"no";"zombie"
157;81;"female";"urban";1;1;"yes";"yes";"no";"yes";"zombie"
158;19;"male";"suburban";1;0;"yes";"yes";"no";"yes";"zombie"
159;25;"female";"urban";1;0;"yes";"no";"yes";"no";"zombie"
160;28;"male";"urban";2;0;"no";"no";"yes";"no";"zombie"
161;29;"female";"urban";3;1;"no";"no";"no";"yes";"zombie"
162;37;"female";"suburban";4;0;"no";"no";"no";"yes";"zombie"
163;38;"male";"urban";3;1;"no";"no";"yes";"no";"zombie"
164;39;"male";"urban";3;1;"no";"yes";"yes";"no";"zombie"
165;40;"male";"urban";3;0;"no";"no";"no";"yes";"zombie"
166;40;"male";"urban";3;0;"no";"no";"no";"yes";"zombie"
167;42;"male";"suburban";4;0;"no";"no";"no";"no";"zombie"
168;44;"male";"urban";3;0;"no";"no";"yes";"no";"zombie"
169;45;"female";"urban";3;0;"no";"no";"yes";"yes";"zombie"
170;46;"female";"urban";3;0;"yes";"no";"yes";"yes";"zombie"
171;46;"male";"rural";4;1;"no";"no";"no";"no";"zombie"
172;47;"male";"urban";4;1;"no";"no";"yes";"no";"zombie"
173;49;"male";"rural";5;0;"no";"no";"no";"yes";"zombie"
174;51;"male";"urban";2;0;"no";"no";"yes";"yes";"zombie"
175;54;"female";"urban";2;0;"no";"no";"no";"no";"zombie"
176;56;"female";"urban";2;1;"no";"yes";"yes";"no";"zombie"
177;56;"female";"suburban";2;1;"no";"no";"no";"yes";"zombie"
178;58;"female";"suburban";2;1;"no";"no";"no";"yes";"zombie"
179;59;"female";"rural";3;0;"no";"no";"yes";"no";"zombie"
180;60;"female";"rural";2;0;"no";"no";"yes";"no";"zombie"
181;62;"male";"urban";1;0;"no";"no";"no";"yes";"zombie"
182;67;"female";"urban";1;0;"yes";"yes";"no";"yes";"zombie"
183;68;"male";"suburban";2;1;"no";"no";"no";"no";"zombie"
184;71;"male";"suburban";1;1;"no";"no";"yes";"no";"zombie"
185;71;"female";"urban";1;0;"no";"no";"yes";"yes";"zombie"
186;78;"male";"urban";1;0;"no";"no";"yes";"yes";"zombie"
187;18;"male";"urban";3;0;"no";"no";"no";"no";"zombie"
188;21;"female";"urban";2;1;"no";"no";"yes";"no";"zombie"
189;32;"male";"urban";3;0;"no";"no";"no";"yes";"zombie"
190;41;"female";"rural";5;0;"no";"no";"yes";"yes";"zombie"
191;43;"female";"rural";5;0;"no";"no";"no";"no";"zombie"
192;48;"female";"suburban";4;1;"no";"no";"no";"no";"zombie"
193;58;"male";"urban";1;0;"yes";"no";"yes";"yes";"zombie"
194;65;"male";"urban";1;0;"no";"no";"yes";"yes";"zombie"
195;67;"female";"suburban";2;0;"no";"no";"no";"no";"zombie"
196;68;"male";"suburban";1;0;"yes";"no";"no";"no";"zombie"
197;71;"male";"suburban";1;1;"no";"no";"yes";"yes";"zombie"
198;76;"female";"urban";1;0;"no";"no";"yes";"yes";"zombie"
199;82;"male";"urban";1;0;"no";"no";"no";"no";"zombie"
200;85;"male";"urban";1;0;"no";"yes";"no";"no";"zombie"
